prj/xilinx/template.sim/sim_1/behav/xsim/wave.vcd
$date
   Thu Apr 11 15:33:29 2024
$end
$version
  2018.3
$end
$timescale
  1ps
$end
$scope module tb_psram_controller $end
$var reg 1 ! sys_clk $end
$var reg 1 " sys_rst $end
$var wire 1 # init_cable_complete $end
$var wire 1 $ psram_clk $end
$var wire 1 % psram_ce $end
$var wire 1 & psram_done $end
$var wire 16 ' psram_rd_data [15:0] $end
$var wire 1 ( psram_rd_valid $end
$var wire 1 ) psram_wr_valid $end
$var wire 16 * psram_dq [15:0] $end
$var wire 2 + psram_dm [1:0] $end
$var reg 1 , psram_exe $end
$var reg 1 - rw_ctrl $end
$var reg 1 . bit_ctrl $end
$var reg 2 / byte_write [1:0] $end
$var reg 1 0 wrap_in $end
$var reg 32 1 addr_in [31:0] $end
$var reg 16 2 data_in [15:0] $end
$var reg 12 3 burst_len [11:0] $end
$var reg 2 4 command_in [1:0] $end
$var parameter 32 5 CLK_FRE [31:0] $end
$var parameter 32 6 PSRAM_FRE [31:0] $end
$var parameter 32 7 LATENCY [31:0] $end
$var parameter 32 8 MAIN_FRE [31:0] $end
$scope module u_psram_controller $end
$var wire 1 9 sys_clk $end
$var wire 1 : sys_rst $end
$var wire 1 ; psram_exe $end
$var wire 1 < rw_ctrl $end
$var wire 1 = bit_ctrl $end
$var wire 2 > byte_write [1:0] $end
$var wire 1 ? wrap_in $end
$var wire 32 @ addr_in [31:0] $end
$var wire 16 A data_in [15:0] $end
$var wire 12 B burst_len [11:0] $end
$var wire 2 C command_in [1:0] $end
$var reg 1 D init_cable_complete $end
$var reg 1 E psram_clk $end
$var reg 1 F psram_ce $end
$var wire 16 * psram_dq [15:0] $end
$var wire 2 + psram_dm [1:0] $end
$var reg 1 G psram_done $end
$var reg 16 H psram_rd_data [15:0] $end
$var reg 1 I psram_rd_valid $end
$var wire 1 ) psram_wr_valid $end
$var reg 3 J clk_cnt [2:0] $end
$var reg 32 K init_cnt [31:0] $end
$var reg 2 L mr_clk_cnt [1:0] $end
$var reg 3 M mr_cnt [2:0] $end
$var reg 1 N mend_flag $end
$var reg 4 O state_now [3:0] $end
$var reg 4 P state_next [3:0] $end
$var reg 2 Q address_cnt [1:0] $end
$var reg 4 R latency_cnt [3:0] $end
$var reg 12 S data_cnt [11:0] $end
$var reg 2 T cph_cnt [-1:0] $end
$var reg 16 U psram_dq_out [15:0] $end
$var reg 2 V psram_dm_out [1:0] $end
$var wire 16 W psram_dq_in [15:0] $end
$var wire 2 X psram_dm_in [1:0] $end
$var reg 1 Y psram_dm_in_d0 $end
$var wire 1 Z psram_dm_in_pos $end
$var wire 1 [ psram_dm_in_neg $end
$var wire 3 \ latency_config [2:0] $end
$var wire 2 ] bl_config [1:0] $end
$var parameter 32 ^ CLK_FRE [31:0] $end
$var parameter 32 _ PSRAM_FRE [31:0] $end
$var parameter 32 ` LATENCY [31:0] $end
$var parameter 32 a CLK_TIME [31:0] $end
$var parameter 32 b INIT_TIME [31:0] $end
$var parameter 32 c CPH_TIME [31:0] $end
$var parameter 4 d IDLE [3:0] $end
$var parameter 4 e RESET [3:0] $end
$var parameter 4 f RESET_WAIT [3:0] $end
$var parameter 4 g CONFIG [3:0] $end
$var parameter 4 h INIT [3:0] $end
$var parameter 4 i COMMAND [3:0] $end
$var parameter 4 j ADDRESS [3:0] $end
$var parameter 4 k WAIT [3:0] $end
$var parameter 4 l WRITE [3:0] $end
$var parameter 4 m READ [3:0] $end
$var parameter 4 n DONE [3:0] $end
$var parameter 4 o DONE_WAIT [3:0] $end
$upscope $end
$upscope $end
$enddefinitions $end
#0
$dumpvars
0!
0"
x#
x$
x%
x&
bx '
x(
x)
bx *
bx +
x,
1-
1.
b0 /
00
b0 1
b0 2
b100000 3
b0 4
b11111011110001010010000000000 5
b11111011110001010010000000 6
b11 7
b111110100 8
09
0:
x;
1<
1=
b0 >
0?
b0 @
b0 A
b100000 B
b0 C
xD
xE
xF
xG
bx H
xI
bx J
bx K
bx L
bx M
xN
bx O
b0 P
bx Q
bx R
bx S
bx T
bx U
bx V
bx W
bx X
xY
xZ
x[
b0 \
b1 ]
b11111011110001010010000000000 ^
b11111011110001010010000000 _
b11 `
b1000 a
b11111111111111111111101001110101 b
b0 c
b0 d
b1 e
b10 f
b11 g
b100 h
b101 i
b110 j
b111 k
b1000 l
b1001 m
b1010 n
b1011 o
$end
#1000
1!
0#
0$
0%
0&
b0 '
0(
0)
b0 *
b0 +
0,
19
0;
0D
0E
0F
0G
b0 H
0I
b0 J
b0 K
b0 L
b0 M
0N
b0 O
b0 Q
b0 R
b0 S
b0 T
b0 U
b0 V
b0 W
b0 X
0Y
0Z
0[
#2000
0!
09
#3000
1!
19
#4000
0!
09
#5000
1!
19
#6000
0!
09
#7000
1!
19
#8000
0!
09
#9000
1!
19
#10000
0!
09
#11000
1!
19
#12000
0!
09
#13000
1!
19
#14000
0!
09
#15000
1!
19
#16000
0!
09
#17000
1!
19
#18000
0!
09
#19000
1!
19
#20000
0!
09
#21000
1!
19
#22000
0!
09
#23000
1!
19
#24000
0!
09
#25000
1!
19
#26000
0!
09
#27000
1!
19
#28000
0!
09
#29000
1!
19
#30000
0!
09
#31000
1!
19
#32000
0!
09
#33000
1!
19
#34000
0!
09
#35000
1!
19
#36000
0!
09
#37000
1!
19
#38000
0!
09
#39000
1!
19
#40000
0!
09
#41000
1!
19
#42000
0!
09
#43000
1!
19
#44000
0!
09
#45000
1!
19
#46000
0!
09
#47000
1!
19
#48000
0!
09
#49000
1!
19
#50000
0!
1"
09
1:
#51000
1!
1%
19
1F
b1 K
#52000
0!
09
#53000
1!
19
b10 K
#54000
0!
09
#55000
1!
19
b11 K
#56000
0!
09
#57000
1!
19
b100 K
#58000
0!
09
#59000
1!
19
b101 K
#60000
0!
09
#61000
1!
19
b110 K
#62000
0!
09
#63000
1!
19
b111 K
#64000
0!
09
#65000
1!
19
b1000 K
#66000
0!
09
#67000
1!
19
b1001 K
#68000
0!
09
#69000
1!
19
b1010 K
#70000
0!
09
#71000
1!
19
b1011 K
#72000
0!
09
#73000
1!
19
b1100 K
#74000
0!
09
#75000
1!
19
b1101 K
#76000
0!
09
#77000
1!
19
b1110 K
#78000
0!
09
#79000
1!
19
b1111 K
#80000
0!
09
#81000
1!
19
b10000 K
#82000
0!
09
#83000
1!
19
b10001 K
#84000
0!
09
#85000
1!
19
b10010 K
#86000
0!
09
#87000
1!
19
b10011 K
#88000
0!
09
#89000
1!
19
b10100 K
#90000
0!
09
#91000
1!
19
b10101 K
#92000
0!
09
#93000
1!
19
b10110 K
#94000
0!
09
#95000
1!
19
b10111 K
#96000
0!
09
#97000
1!
19
b11000 K
#98000
0!
09
#99000
1!
19
b11001 K
#100000
0!
0"
09
0:
#101000
1!
0%
19
0F
b0 K
